# Created at 2019-09-12T06:53:47.904
System.exit() or native command error interrupted process checker.
java.lang.IllegalStateException: Cannot use PPID 11294 process information. Going to use NOOP events.
	at org.apache.maven.surefire.booter.PpidChecker.checkProcessInfo(PpidChecker.java:155)
	at org.apache.maven.surefire.booter.PpidChecker.isProcessAlive(PpidChecker.java:124)
	at org.apache.maven.surefire.booter.ForkedBooter$2.run(ForkedBooter.java:214)
	at java.util.concurrent.Executors$RunnableAdapter.call(Executors.java:511)
	at java.util.concurrent.FutureTask.runAndReset(FutureTask.java:308)
	at java.util.concurrent.ScheduledThreadPoolExecutor$ScheduledFutureTask.access$301(ScheduledThreadPoolExecutor.java:180)
	at java.util.concurrent.ScheduledThreadPoolExecutor$ScheduledFutureTask.run(ScheduledThreadPoolExecutor.java:294)
	at java.util.concurrent.ThreadPoolExecutor.runWorker(ThreadPoolExecutor.java:1149)
	at java.util.concurrent.ThreadPoolExecutor$Worker.run(ThreadPoolExecutor.java:624)
	at java.lang.Thread.run(Thread.java:748)


# Created at 2019-09-12T06:54:26.219
Killing self fork JVM. PING timeout elapsed.

