/home/automation/workspace30Aug/SingaporeAutomation/src/test/java/com/testScripts_Singapore/ValidusSmoke_SMEWorkingCapitalFinancing.java
/home/automation/workspace30Aug/SingaporeAutomation/src/test/java/com/testScripts_Singapore/Singapore_IndividualInvestorSingaporeCitizen.java
/home/automation/workspace30Aug/SingaporeAutomation/src/test/java/com/testScripts_Singapore/Singapore_CompanyIncorporatedInSingapore.java
/home/automation/workspace30Aug/SingaporeAutomation/src/test/java/com/testScripts_Singapore/Singapore_SME_Business_InvoiceFinancingCardFacility.java
/home/automation/workspace30Aug/SingaporeAutomation/src/test/java/com/testScripts_Singapore/Singapore_SME_PteLtd.java
/home/automation/workspace30Aug/SingaporeAutomation/src/test/java/com/testScripts_Singapore/Singapore_SME_Partnership.java
/home/automation/workspace30Aug/SingaporeAutomation/src/test/java/com/testScripts_Singapore/ValidusSmoke_SMEWorkingCapitalFinancingSinglePayment.java
/home/automation/workspace30Aug/SingaporeAutomation/src/test/java/com/testScripts_Singapore/Singapore_SME_PteLtd_CVF.java
/home/automation/workspace30Aug/SingaporeAutomation/src/test/java/com/testScripts_Singapore/Singapore_SME_SoleProprietorship.java
/home/automation/workspace30Aug/SingaporeAutomation/src/test/java/com/testScripts_Singapore/ValidusSmoke_SMEInvoicefinancingCardfacility.java
/home/automation/workspace30Aug/SingaporeAutomation/src/test/java/com/testScripts_Singapore/Singapore_CompanyIncorporatedOutSideSingapore.java
/home/automation/workspace30Aug/SingaporeAutomation/src/test/java/com/testScripts_Singapore/NewTest.java
/home/automation/workspace30Aug/SingaporeAutomation/src/test/java/com/testScripts_Singapore/ValidusSmoke_SMEInvoicefinancing.java
/home/automation/workspace30Aug/SingaporeAutomation/src/test/java/com/testScripts_Singapore/ValidusSmoke_SMEInvoicefinancingCorporateVendorFinancing.java
/home/automation/workspace30Aug/SingaporeAutomation/src/test/java/com/testScripts_Singapore/Singapore_SME_LLC_PurchaseOrderFinancing.java
/home/automation/workspace30Aug/SingaporeAutomation/src/test/java/com/testScripts_Singapore/Singapore_SME_LLP_workingCapitalFinancing_SinglePayment.java
/home/automation/workspace30Aug/SingaporeAutomation/src/test/java/com/testScripts_Singapore/Singapore_IndividualInvestorNonSingaporeCitizen.java
